simulation
…
)

output = vector("list",length = 4)

for (i  in 1:4) {
    output[[i]] = rerun(100, sim_regression(n = n_list[[i]])) %>% 
        bind_rows
    
}

output

## [[1]]
## # A tibble: 100 x 2
##    beta0_hat beta1_hat
##        <dbl>     <dbl>
##  1      2.19      3.05
##  2      2.60      3.11
##  3      2.66      3.03
##  4      2.50      3.06
##  5      3.45      3.40
##  6      3.86      3.42
##  7      2.04      3.04
##  8      1.24      2.83
##  9      1.75      2.89
## 10      2.90      3.22
## #  with 90 more rows
## 
## [[2]]
## # A tibble: 100 x 2
##    beta0_hat beta1_hat
##        <dbl>     <dbl>
##  1      2.45      3.11
##  2      2.52      3.12
##  3      3.38      3.33
##  4      2.19      3.08
##  5      2.18      3.04
##  6      2.09      3.03
##  7      1.74      2.92
##  8      1.40      2.88
##  9      1.85      2.98
## 10      2.72      3.19
## #  with 90 more rows
## 
## [[3]]
## # A tibble: 100 x 2
##    beta0_hat beta1_hat
##        <dbl>     <dbl>
##  1      2.60      3.10
##  2      2.06      2.99
##  3      2.27      3.06
##  4      1.30      2.80
##  5      2.26      3.08
##  6      1.88      2.96
##  7      1.78      2.98
##  8      2.18      3.05
##  9      2.15      3.02
## 10      1.42      2.87
## #  with 90 more rows
## 
## [[4]]
## # A tibble: 100 x 2
##    beta0_hat beta1_hat
##        <dbl>     <dbl>
##  1      3.08      3.27
##  2      2.37      3.00
##  3      1.66      2.93
##  4      3.73      3.44
##  5      3.12      3.38
##  6      2.13      2.94
##  7      1.46      2.88
##  8      2.62      3.13
##  9      2.72      3.19
## 10      1.04      2.74
## #  with 90 more rows
…
